Arreglos originales
(1, 2, 4, 5, 8, 10, 4, 5, 2, 6, 12, 15, 12, 16, 50)
(15, 14, 13, 12, 11, 10, 9, 8, 7, 6, 5, 5, 5, 5, 5)
(0, 1, 10, 0, 20, 83, 8, 82, 8, 6, 2, 4, 5, 6, 5)
Arreglos Ordenados
[50, 16, 15, 12, 12, 10, 8, 6, 5, 5, 4, 4, 2, 2, 1]
[15, 14, 13, 12, 11, 10, 9, 8, 7, 6, 5, 5, 5, 5, 5]
[83, 82, 20, 10, 8, 8, 6, 6, 5, 5, 4, 2, 1]
